; Engine configuration file.
; It's best edited using the editor UI and not directly,
; since the parameters that go here are not all obvious.
;
; Format:
;   [section] ; section goes between []
;   param=value ; assign values to parameters

config_version=4

_global_script_classes=[  ]
_global_script_class_icons={

}

[application]

config/name="Terpomo - savu la mondon"
run/main_scene="res://Scenoj/CxefaMenuo.tscn"
boot_splash/image="res://UI/FOnbildo.png"
config/icon="res://icon.png"

[autoload]

Globala="*res://Globala.gd"
Rekordoj="*res://Asetoj/Rekordoj/Rekordoj.tscn"

[display]

window/size/width=1280
window/size/height=720
window/size/resizable=false

[rendering]

quality/driver/driver_name="GLES2"
quality/intended_usage/framebuffer_allocation=0
quality/intended_usage/framebuffer_allocation.mobile=1
vram_compression/import_etc=true
vram_compression/import_etc2=false
quality/reflections/texture_array_reflections=false
quality/reflections/high_quality_ggx=false
environment/default_clear_color=Color( 0, 0.341176, 0.533333, 1 )
environment/default_environment="res://default_env.tres"
